<?xml version="1.0" standalone="no"?>
<!DOCTYPE svg PUBLIC "-//W3C//DTD SVG 20010904//EN"
 "http://www.w3.org/TR/2001/REC-SVG-20010904/DTD/svg10.dtd">
<svg version="1.0" xmlns="http://www.w3.org/2000/svg"
 width="501.000000pt" height="501.000000pt" viewBox="0 0 501.000000 501.000000"
 preserveAspectRatio="xMidYMid meet">
<metadata>
Created by potrace 1.11, written by Peter Selinger 2001-2013
</metadata>
<g transform="translate(0.000000,501.000000) scale(0.100000,-0.100000)"
fill="#000000" stroke="none">
<path d="M360 2500 l0 -2495 1368 0 c1356 0 1368 0 1497 22 843 140 1378 601
1492 1283 23 144 21 361 -6 487 -72 343 -276 668 -659 1051 l-193 193 62 102
c120 197 189 373 209 532 19 154 -11 423 -66 592 -125 383 -406 613 -854 699
-87 17 -177 19 -1115 21 -561 2 -1181 4 -1378 6 l-357 2 0 -2495z"/>
</g>
</svg>
